{
  "count": 65611,
  "next": "https://api.octopus.energy/v1/products/AGILE-18-02-21/electricity-tariffs/E-1R-AGILE-18-02-21-C/standard-unit-rates/?page=3",
  "previous": "https://api.octopus.energy/v1/products/AGILE-18-02-21/electricity-tariffs/E-1R-AGILE-18-02-21-C/standard-unit-rates/",
  "results": [
    {
      "value_exc_vat": 9.76,
      "value_inc_vat": 10.248,
      "valid_from": "2020-09-26T19:30:00Z",
      "valid_to": "2020-09-26T20:00:00Z"
    },
    {
      "value_exc_vat": 11.6,
      "value_inc_vat": 12.18,
      "valid_from": "2020-09-26T19:00:00Z",
      "valid_to": "2020-09-26T19:30:00Z"
    },
    {
      "value_exc_vat": 11.81,
      "value_inc_vat": 12.4005,
      "valid_from": "2020-09-26T18:30:00Z",
      "valid_to": "2020-09-26T19:00:00Z"
    },
    {
      "value_exc_vat": 12.2,
      "value_inc_vat": 12.81,
      "valid_from": "2020-09-26T18:00:00Z",
      "valid_to": "2020-09-26T18:30:00Z"
    },
    {
      "value_exc_vat": 24.24,
      "value_inc_vat": 25.452,
      "valid_from": "2020-09-26T17:30:00Z",
      "valid_to": "2020-09-26T18:00:00Z"
    },
    {
      "value_exc_vat": 23.28,
      "value_inc_vat": 24.444,
      "valid_from": "2020-09-26T17:00:00Z",
      "valid_to": "2020-09-26T17:30:00Z"
    },
    {
      "value_exc_vat": 22.08,
      "value_inc_vat": 23.184,
      "valid_from": "2020-09-26T16:30:00Z",
      "valid_to": "2020-09-26T17:00:00Z"
    },
    {
      "value_exc_vat": 20.4,
      "value_inc_vat": 21.42,
      "valid_from": "2020-09-26T16:00:00Z",
      "valid_to": "2020-09-26T16:30:00Z"
    },
    {
      "value_exc_vat": 19.8,
      "value_inc_vat": 20.79,
      "valid_from": "2020-09-26T15:30:00Z",
      "valid_to": "2020-09-26T16:00:00Z"
    },
    {
      "value_exc_vat": 18.32,
      "value_inc_vat": 19.236,
      "valid_from": "2020-09-26T15:00:00Z",
      "valid_to": "2020-09-26T15:30:00Z"
    },
    {
      "value_exc_vat": 6.26,
      "value_inc_vat": 6.573,
      "valid_from": "2020-09-26T14:30:00Z",
      "valid_to": "2020-09-26T15:00:00Z"
    },
    {
      "value_exc_vat": 7.0,
      "value_inc_vat": 7.35,
      "valid_from": "2020-09-26T14:00:00Z",
      "valid_to": "2020-09-26T14:30:00Z"
    },
    {
      "value_exc_vat": 5.1,
      "value_inc_vat": 5.355,
      "valid_from": "2020-09-26T13:30:00Z",
      "valid_to": "2020-09-26T14:00:00Z"
    },
    {
      "value_exc_vat": 5.36,
      "value_inc_vat": 5.628,
      "valid_from": "2020-09-26T13:00:00Z",
      "valid_to": "2020-09-26T13:30:00Z"
    },
    {
      "value_exc_vat": 5.12,
      "value_inc_vat": 5.376,
      "valid_from": "2020-09-26T12:30:00Z",
      "valid_to": "2020-09-26T13:00:00Z"
    },
    {
      "value_exc_vat": 6.0,
      "value_inc_vat": 6.3,
      "valid_from": "2020-09-26T12:00:00Z",
      "valid_to": "2020-09-26T12:30:00Z"
    },
    {
      "value_exc_vat": 6.0,
      "value_inc_vat": 6.3,
      "valid_from": "2020-09-26T11:30:00Z",
      "valid_to": "2020-09-26T12:00:00Z"
    },
    {
      "value_exc_vat": 5.94,
      "value_inc_vat": 6.237,
      "valid_from": "2020-09-26T11:00:00Z",
      "valid_to": "2020-09-26T11:30:00Z"
    },
    {
      "value_exc_vat": 6.16,
      "value_inc_vat": 6.468,
      "valid_from": "2020-09-26T10:30:00Z",
      "valid_to": "2020-09-26T11:00:00Z"
    },
    {
      "value_exc_vat": 6.7,
      "value_inc_vat": 7.035,
      "valid_from": "2020-09-26T10:00:00Z",
      "valid_to": "2020-09-26T10:30:00Z"
    },
    {
      "value_exc_vat": 6.88,
      "value_inc_vat": 7.224,
      "valid_from": "2020-09-26T09:30:00Z",
      "valid_to": "2020-09-26T10:00:00Z"
    },
    {
      "value_exc_vat": 8.2,
      "value_inc_vat": 8.61,
      "valid_from": "2020-09-26T09:00:00Z",
      "valid_to": "2020-09-26T09:30:00Z"
    },
    {
      "value_exc_vat": 7.8,
      "value_inc_vat": 8.19,
      "valid_from": "2020-09-26T08:30:00Z",
      "valid_to": "2020-09-26T09:00:00Z"
    },
    {
      "value_exc_vat": 7.9,
      "value_inc_vat": 8.295,
      "valid_from": "2020-09-26T08:00:00Z",
      "valid_to": "2020-09-26T08:30:00Z"
    },
    {
      "value_exc_vat": 8.4,
      "value_inc_vat": 8.82,
      "valid_from": "2020-09-26T07:30:00Z",
      "valid_to": "2020-09-26T08:00:00Z"
    },
    {
      "value_exc_vat": 7.02,
      "value_inc_vat": 7.371,
      "valid_from": "2020-09-26T07:00:00Z",
      "valid_to": "2020-09-26T07:30:00Z"
    },
    {
      "value_exc_vat": 8.4,
      "value_inc_vat": 8.82,
      "valid_from": "2020-09-26T06:30:00Z",
      "valid_to": "2020-09-26T07:00:00Z"
    },
    {
      "value_exc_vat": 6.24,
      "value_inc_vat": 6.552,
      "valid_from": "2020-09-26T06:00:00Z",
      "valid_to": "2020-09-26T06:30:00Z"
    },
    {
      "value_exc_vat": 6.14,
      "value_inc_vat": 6.447,
      "valid_from": "2020-09-26T05:30:00Z",
      "valid_to": "2020-09-26T06:00:00Z"
    },
    {
      "value_exc_vat": 5.1,
      "value_inc_vat": 5.355,
      "valid_from": "2020-09-26T05:00:00Z",
      "valid_to": "2020-09-26T05:30:00Z"
    },
    {
      "value_exc_vat": 5.2,
      "value_inc_vat": 5.46,
      "valid_from": "2020-09-26T04:30:00Z",
      "valid_to": "2020-09-26T05:00:00Z"
    },
    {
      "value_exc_vat": 4.88,
      "value_inc_vat": 5.124,
      "valid_from": "2020-09-26T04:00:00Z",
      "valid_to": "2020-09-26T04:30:00Z"
    },
    {
      "value_exc_vat": 4.58,
      "value_inc_vat": 4.809,
      "valid_from": "2020-09-26T03:30:00Z",
      "valid_to": "2020-09-26T04:00:00Z"
    },
    {
      "value_exc_vat": 4.66,
      "value_inc_vat": 4.893,
      "valid_from": "2020-09-26T03:00:00Z",
      "valid_to": "2020-09-26T03:30:00Z"
    },
    {
      "value_exc_vat": 4.0,
      "value_inc_vat": 4.2,
      "valid_from": "2020-09-26T02:30:00Z",
      "valid_to": "2020-09-26T03:00:00Z"
    },
    {
      "value_exc_vat": 4.32,
      "value_inc_vat": 4.536,
      "valid_from": "2020-09-26T02:00:00Z",
      "valid_to": "2020-09-26T02:30:00Z"
    },
    {
      "value_exc_vat": 4.68,
      "value_inc_vat": 4.914,
      "valid_from": "2020-09-26T01:30:00Z",
      "valid_to": "2020-09-26T02:00:00Z"
    },
    {
      "value_exc_vat": 5.04,
      "value_inc_vat": 5.292,
      "valid_from": "2020-09-26T01:00:00Z",
      "valid_to": "2020-09-26T01:30:00Z"
    },
    {
      "value_exc_vat": 5.6,
      "value_inc_vat": 5.88,
      "valid_from": "2020-09-26T00:30:00Z",
      "valid_to": "2020-09-26T01:00:00Z"
    },
    {
      "value_exc_vat": 5.64,
      "value_inc_vat": 5.922,
      "valid_from": "2020-09-26T00:00:00Z",
      "valid_to": "2020-09-26T00:30:00Z"
    },
    {
      "value_exc_vat": 5.5,
      "value_inc_vat": 5.775,
      "valid_from": "2020-09-25T23:30:00Z",
      "valid_to": "2020-09-26T00:00:00Z"
    },
    {
      "value_exc_vat": 6.8,
      "value_inc_vat": 7.14,
      "valid_from": "2020-09-25T23:00:00Z",
      "valid_to": "2020-09-25T23:30:00Z"
    },
    {
      "value_exc_vat": 6.4,
      "value_inc_vat": 6.72,
      "valid_from": "2020-09-25T22:30:00Z",
      "valid_to": "2020-09-25T23:00:00Z"
    },
    {
      "value_exc_vat": 7.98,
      "value_inc_vat": 8.379,
      "valid_from": "2020-09-25T22:00:00Z",
      "valid_to": "2020-09-25T22:30:00Z"
    },
    {
      "value_exc_vat": 6.64,
      "value_inc_vat": 6.972,
      "valid_from": "2020-09-25T21:30:00Z",
      "valid_to": "2020-09-25T22:00:00Z"
    },
    {
      "value_exc_vat": 8.38,
      "value_inc_vat": 8.799,
      "valid_from": "2020-09-25T21:00:00Z",
      "valid_to": "2020-09-25T21:30:00Z"
    },
    {
      "value_exc_vat": 8.28,
      "value_inc_vat": 8.694,
      "valid_from": "2020-09-25T20:30:00Z",
      "valid_to": "2020-09-25T21:00:00Z"
    },
    {
      "value_exc_vat": 9.38,
      "value_inc_vat": 9.849,
      "valid_from": "2020-09-25T20:00:00Z",
      "valid_to": "2020-09-25T20:30:00Z"
    },
    {
      "value_exc_vat": 9.52,
      "value_inc_vat": 9.996,
      "valid_from": "2020-09-25T19:30:00Z",
      "valid_to": "2020-09-25T20:00:00Z"
    },
    {
      "value_exc_vat": 12.0,
      "value_inc_vat": 12.6,
      "valid_from": "2020-09-25T19:00:00Z",
      "valid_to": "2020-09-25T19:30:00Z"
    },
    {
      "value_exc_vat": 12.8,
      "value_inc_vat": 13.44,
      "valid_from": "2020-09-25T18:30:00Z",
      "valid_to": "2020-09-25T19:00:00Z"
    },
    {
      "value_exc_vat": 13.0,
      "value_inc_vat": 13.65,
      "valid_from": "2020-09-25T18:00:00Z",
      "valid_to": "2020-09-25T18:30:00Z"
    },
    {
      "value_exc_vat": 24.4,
      "value_inc_vat": 25.62,
      "valid_from": "2020-09-25T17:30:00Z",
      "valid_to": "2020-09-25T18:00:00Z"
    },
    {
      "value_exc_vat": 23.56,
      "value_inc_vat": 24.738,
      "valid_from": "2020-09-25T17:00:00Z",
      "valid_to": "2020-09-25T17:30:00Z"
    },
    {
      "value_exc_vat": 22.6,
      "value_inc_vat": 23.73,
      "valid_from": "2020-09-25T16:30:00Z",
      "valid_to": "2020-09-25T17:00:00Z"
    },
    {
      "value_exc_vat": 20.08,
      "value_inc_vat": 21.084,
      "valid_from": "2020-09-25T16:00:00Z",
      "valid_to": "2020-09-25T16:30:00Z"
    },
    {
      "value_exc_vat": 21.04,
      "value_inc_vat": 22.092,
      "valid_from": "2020-09-25T15:30:00Z",
      "valid_to": "2020-09-25T16:00:00Z"
    },
    {
      "value_exc_vat": 19.6,
      "value_inc_vat": 20.58,
      "valid_from": "2020-09-25T15:00:00Z",
      "valid_to": "2020-09-25T15:30:00Z"
    },
    {
      "value_exc_vat": 6.0,
      "value_inc_vat": 6.3,
      "valid_from": "2020-09-25T14:30:00Z",
      "valid_to": "2020-09-25T15:00:00Z"
    },
    {
      "value_exc_vat": 5.38,
      "value_inc_vat": 5.649,
      "valid_from": "2020-09-25T14:00:00Z",
      "valid_to": "2020-09-25T14:30:00Z"
    },
    {
      "value_exc_vat": 6.0,
      "value_inc_vat": 6.3,
      "valid_from": "2020-09-25T13:30:00Z",
      "valid_to": "2020-09-25T14:00:00Z"
    },
    {
      "value_exc_vat": 5.98,
      "value_inc_vat": 6.279,
      "valid_from": "2020-09-25T13:00:00Z",
      "valid_to": "2020-09-25T13:30:00Z"
    },
    {
      "value_exc_vat": 5.9,
      "value_inc_vat": 6.195,
      "valid_from": "2020-09-25T12:30:00Z",
      "valid_to": "2020-09-25T13:00:00Z"
    },
    {
      "value_exc_vat": 6.7,
      "value_inc_vat": 7.035,
      "valid_from": "2020-09-25T12:00:00Z",
      "valid_to": "2020-09-25T12:30:00Z"
    },
    {
      "value_exc_vat": 7.28,
      "value_inc_vat": 7.644,
      "valid_from": "2020-09-25T11:30:00Z",
      "valid_to": "2020-09-25T12:00:00Z"
    },
    {
      "value_exc_vat": 7.68,
      "value_inc_vat": 8.064,
      "valid_from": "2020-09-25T11:00:00Z",
      "valid_to": "2020-09-25T11:30:00Z"
    },
    {
      "value_exc_vat": 8.3,
      "value_inc_vat": 8.715,
      "valid_from": "2020-09-25T10:30:00Z",
      "valid_to": "2020-09-25T11:00:00Z"
    },
    {
      "value_exc_vat": 8.88,
      "value_inc_vat": 9.324,
      "valid_from": "2020-09-25T10:00:00Z",
      "valid_to": "2020-09-25T10:30:00Z"
    },
    {
      "value_exc_vat": 7.92,
      "value_inc_vat": 8.316,
      "valid_from": "2020-09-25T09:30:00Z",
      "valid_to": "2020-09-25T10:00:00Z"
    },
    {
      "value_exc_vat": 9.12,
      "value_inc_vat": 9.576,
      "valid_from": "2020-09-25T09:00:00Z",
      "valid_to": "2020-09-25T09:30:00Z"
    },
    {
      "value_exc_vat": 10.0,
      "value_inc_vat": 10.5,
      "valid_from": "2020-09-25T08:30:00Z",
      "valid_to": "2020-09-25T09:00:00Z"
    },
    {
      "value_exc_vat": 11.6,
      "value_inc_vat": 12.18,
      "valid_from": "2020-09-25T08:00:00Z",
      "valid_to": "2020-09-25T08:30:00Z"
    },
    {
      "value_exc_vat": 10.0,
      "value_inc_vat": 10.5,
      "valid_from": "2020-09-25T07:30:00Z",
      "valid_to": "2020-09-25T08:00:00Z"
    },
    {
      "value_exc_vat": 10.92,
      "value_inc_vat": 11.466,
      "valid_from": "2020-09-25T07:00:00Z",
      "valid_to": "2020-09-25T07:30:00Z"
    },
    {
      "value_exc_vat": 11.12,
      "value_inc_vat": 11.676,
      "valid_from": "2020-09-25T06:30:00Z",
      "valid_to": "2020-09-25T07:00:00Z"
    },
    {
      "value_exc_vat": 9.2,
      "value_inc_vat": 9.66,
      "valid_from": "2020-09-25T06:00:00Z",
      "valid_to": "2020-09-25T06:30:00Z"
    },
    {
      "value_exc_vat": 9.94,
      "value_inc_vat": 10.437,
      "valid_from": "2020-09-25T05:30:00Z",
      "valid_to": "2020-09-25T06:00:00Z"
    },
    {
      "value_exc_vat": 9.42,
      "value_inc_vat": 9.891,
      "valid_from": "2020-09-25T05:00:00Z",
      "valid_to": "2020-09-25T05:30:00Z"
    },
    {
      "value_exc_vat": 8.16,
      "value_inc_vat": 8.568,
      "valid_from": "2020-09-25T04:30:00Z",
      "valid_to": "2020-09-25T05:00:00Z"
    },
    {
      "value_exc_vat": 7.5,
      "value_inc_vat": 7.875,
      "valid_from": "2020-09-25T04:00:00Z",
      "valid_to": "2020-09-25T04:30:00Z"
    },
    {
      "value_exc_vat": 4.88,
      "value_inc_vat": 5.124,
      "valid_from": "2020-09-25T03:30:00Z",
      "valid_to": "2020-09-25T04:00:00Z"
    },
    {
      "value_exc_vat": 5.2,
      "value_inc_vat": 5.46,
      "valid_from": "2020-09-25T03:00:00Z",
      "valid_to": "2020-09-25T03:30:00Z"
    },
    {
      "value_exc_vat": 4.0,
      "value_inc_vat": 4.2,
      "valid_from": "2020-09-25T02:30:00Z",
      "valid_to": "2020-09-25T03:00:00Z"
    },
    {
      "value_exc_vat": 4.4,
      "value_inc_vat": 4.62,
      "valid_from": "2020-09-25T02:00:00Z",
      "valid_to": "2020-09-25T02:30:00Z"
    },
    {
      "value_exc_vat": 5.6,
      "value_inc_vat": 5.88,
      "valid_from": "2020-09-25T01:30:00Z",
      "valid_to": "2020-09-25T02:00:00Z"
    },
    {
      "value_exc_vat": 6.56,
      "value_inc_vat": 6.888,
      "valid_from": "2020-09-25T01:00:00Z",
      "valid_to": "2020-09-25T01:30:00Z"
    },
    {
      "value_exc_vat": 8.6,
      "value_inc_vat": 9.03,
      "valid_from": "2020-09-25T00:30:00Z",
      "valid_to": "2020-09-25T01:00:00Z"
    },
    {
      "value_exc_vat": 8.4,
      "value_inc_vat": 8.82,
      "valid_from": "2020-09-25T00:00:00Z",
      "valid_to": "2020-09-25T00:30:00Z"
    },
    {
      "value_exc_vat": 9.22,
      "value_inc_vat": 9.681,
      "valid_from": "2020-09-24T23:30:00Z",
      "valid_to": "2020-09-25T00:00:00Z"
    },
    {
      "value_exc_vat": 9.8,
      "value_inc_vat": 10.29,
      "valid_from": "2020-09-24T23:00:00Z",
      "valid_to": "2020-09-24T23:30:00Z"
    },
    {
      "value_exc_vat": 8.92,
      "value_inc_vat": 9.366,
      "valid_from": "2020-09-24T22:30:00Z",
      "valid_to": "2020-09-24T23:00:00Z"
    },
    {
      "value_exc_vat": 8.96,
      "value_inc_vat": 9.408,
      "valid_from": "2020-09-24T22:00:00Z",
      "valid_to": "2020-09-24T22:30:00Z"
    },
    {
      "value_exc_vat": 6.08,
      "value_inc_vat": 6.384,
      "valid_from": "2020-09-24T21:30:00Z",
      "valid_to": "2020-09-24T22:00:00Z"
    },
    {
      "value_exc_vat": 7.6,
      "value_inc_vat": 7.98,
      "valid_from": "2020-09-24T21:00:00Z",
      "valid_to": "2020-09-24T21:30:00Z"
    },
    {
      "value_exc_vat": 7.4,
      "value_inc_vat": 7.77,
      "valid_from": "2020-09-24T20:30:00Z",
      "valid_to": "2020-09-24T21:00:00Z"
    },
    {
      "value_exc_vat": 8.68,
      "value_inc_vat": 9.114,
      "valid_from": "2020-09-24T20:00:00Z",
      "valid_to": "2020-09-24T20:30:00Z"
    },
    {
      "value_exc_vat": 9.6,
      "value_inc_vat": 10.08,
      "valid_from": "2020-09-24T19:30:00Z",
      "valid_to": "2020-09-24T20:00:00Z"
    },
    {
      "value_exc_vat": 11.6,
      "value_inc_vat": 12.18,
      "valid_from": "2020-09-24T19:00:00Z",
      "valid_to": "2020-09-24T19:30:00Z"
    },
    {
      "value_exc_vat": 13.6,
      "value_inc_vat": 14.28,
      "valid_from": "2020-09-24T18:30:00Z",
      "valid_to": "2020-09-24T19:00:00Z"
    },
    {
      "value_exc_vat": 14.4,
      "value_inc_vat": 15.12,
      "valid_from": "2020-09-24T18:00:00Z",
      "valid_to": "2020-09-24T18:30:00Z"
    }
  ]
}
