{
  "count": 2496,
  "next": "https://api.octopus.energy/v1/electricity-meter-points/2000024512368/meters/-------------/consumption/?order_by=period&page=2",
  "previous": null,
  "results": [
    {
      "consumption": 0.0,
      "interval_start": "2020-08-12T00:30:00+01:00",
      "interval_end": "2020-08-12T01:00:00+01:00"
    },
    {
      "consumption": 0.0,
      "interval_start": "2020-08-12T01:00:00+01:00",
      "interval_end": "2020-08-12T01:30:00+01:00"
    },
    {
      "consumption": 0.0,
      "interval_start": "2020-08-12T01:30:00+01:00",
      "interval_end": "2020-08-12T02:00:00+01:00"
    },
    {
      "consumption": 0.0,
      "interval_start": "2020-08-12T02:00:00+01:00",
      "interval_end": "2020-08-12T02:30:00+01:00"
    },
    {
      "consumption": 0.0,
      "interval_start": "2020-08-12T02:30:00+01:00",
      "interval_end": "2020-08-12T03:00:00+01:00"
    },
    {
      "consumption": 0.0,
      "interval_start": "2020-08-12T03:00:00+01:00",
      "interval_end": "2020-08-12T03:30:00+01:00"
    },
    {
      "consumption": 0.0,
      "interval_start": "2020-08-12T03:30:00+01:00",
      "interval_end": "2020-08-12T04:00:00+01:00"
    },
    {
      "consumption": 0.0,
      "interval_start": "2020-08-12T04:00:00+01:00",
      "interval_end": "2020-08-12T04:30:00+01:00"
    },
    {
      "consumption": 0.0,
      "interval_start": "2020-08-12T04:30:00+01:00",
      "interval_end": "2020-08-12T05:00:00+01:00"
    },
    {
      "consumption": 0.0,
      "interval_start": "2020-08-12T05:00:00+01:00",
      "interval_end": "2020-08-12T05:30:00+01:00"
    },
    {
      "consumption": 0.0,
      "interval_start": "2020-08-12T05:30:00+01:00",
      "interval_end": "2020-08-12T06:00:00+01:00"
    },
    {
      "consumption": 0.0,
      "interval_start": "2020-08-12T06:00:00+01:00",
      "interval_end": "2020-08-12T06:30:00+01:00"
    },
    {
      "consumption": 0.0,
      "interval_start": "2020-08-12T06:30:00+01:00",
      "interval_end": "2020-08-12T07:00:00+01:00"
    },
    {
      "consumption": 0.0,
      "interval_start": "2020-08-12T07:00:00+01:00",
      "interval_end": "2020-08-12T07:30:00+01:00"
    },
    {
      "consumption": 0.0,
      "interval_start": "2020-08-12T07:30:00+01:00",
      "interval_end": "2020-08-12T08:00:00+01:00"
    },
    {
      "consumption": 0.0,
      "interval_start": "2020-08-12T08:00:00+01:00",
      "interval_end": "2020-08-12T08:30:00+01:00"
    },
    {
      "consumption": 0.039,
      "interval_start": "2020-08-12T08:30:00+01:00",
      "interval_end": "2020-08-12T09:00:00+01:00"
    },
    {
      "consumption": 0.71,
      "interval_start": "2020-08-12T09:00:00+01:00",
      "interval_end": "2020-08-12T09:30:00+01:00"
    },
    {
      "consumption": 0.537,
      "interval_start": "2020-08-12T09:30:00+01:00",
      "interval_end": "2020-08-12T10:00:00+01:00"
    },
    {
      "consumption": 0.306,
      "interval_start": "2020-08-12T10:00:00+01:00",
      "interval_end": "2020-08-12T10:30:00+01:00"
    },
    {
      "consumption": 0.674,
      "interval_start": "2020-08-12T10:30:00+01:00",
      "interval_end": "2020-08-12T11:00:00+01:00"
    },
    {
      "consumption": 0.471,
      "interval_start": "2020-08-12T11:00:00+01:00",
      "interval_end": "2020-08-12T11:30:00+01:00"
    },
    {
      "consumption": 0.416,
      "interval_start": "2020-08-12T11:30:00+01:00",
      "interval_end": "2020-08-12T12:00:00+01:00"
    },
    {
      "consumption": 0.375,
      "interval_start": "2020-08-12T12:00:00+01:00",
      "interval_end": "2020-08-12T12:30:00+01:00"
    },
    {
      "consumption": 0.436,
      "interval_start": "2020-08-12T12:30:00+01:00",
      "interval_end": "2020-08-12T13:00:00+01:00"
    },
    {
      "consumption": 0.333,
      "interval_start": "2020-08-12T13:00:00+01:00",
      "interval_end": "2020-08-12T13:30:00+01:00"
    },
    {
      "consumption": 0.328,
      "interval_start": "2020-08-12T13:30:00+01:00",
      "interval_end": "2020-08-12T14:00:00+01:00"
    },
    {
      "consumption": 0.336,
      "interval_start": "2020-08-12T14:00:00+01:00",
      "interval_end": "2020-08-12T14:30:00+01:00"
    },
    {
      "consumption": 0.322,
      "interval_start": "2020-08-12T14:30:00+01:00",
      "interval_end": "2020-08-12T15:00:00+01:00"
    },
    {
      "consumption": 0.49,
      "interval_start": "2020-08-12T15:00:00+01:00",
      "interval_end": "2020-08-12T15:30:00+01:00"
    },
    {
      "consumption": 0.477,
      "interval_start": "2020-08-12T15:30:00+01:00",
      "interval_end": "2020-08-12T16:00:00+01:00"
    },
    {
      "consumption": 0.378,
      "interval_start": "2020-08-12T16:00:00+01:00",
      "interval_end": "2020-08-12T16:30:00+01:00"
    },
    {
      "consumption": 0.328,
      "interval_start": "2020-08-12T16:30:00+01:00",
      "interval_end": "2020-08-12T17:00:00+01:00"
    },
    {
      "consumption": 0.956,
      "interval_start": "2020-08-12T17:00:00+01:00",
      "interval_end": "2020-08-12T17:30:00+01:00"
    },
    {
      "consumption": 0.428,
      "interval_start": "2020-08-12T17:30:00+01:00",
      "interval_end": "2020-08-12T18:00:00+01:00"
    },
    {
      "consumption": 0.327,
      "interval_start": "2020-08-12T18:00:00+01:00",
      "interval_end": "2020-08-12T18:30:00+01:00"
    },
    {
      "consumption": 0.247,
      "interval_start": "2020-08-12T18:30:00+01:00",
      "interval_end": "2020-08-12T19:00:00+01:00"
    },
    {
      "consumption": 0.254,
      "interval_start": "2020-08-12T19:00:00+01:00",
      "interval_end": "2020-08-12T19:30:00+01:00"
    },
    {
      "consumption": 0.393,
      "interval_start": "2020-08-12T19:30:00+01:00",
      "interval_end": "2020-08-12T20:00:00+01:00"
    },
    {
      "consumption": 0.382,
      "interval_start": "2020-08-12T20:00:00+01:00",
      "interval_end": "2020-08-12T20:30:00+01:00"
    },
    {
      "consumption": 0.492,
      "interval_start": "2020-08-12T20:30:00+01:00",
      "interval_end": "2020-08-12T21:00:00+01:00"
    },
    {
      "consumption": 0.446,
      "interval_start": "2020-08-12T21:00:00+01:00",
      "interval_end": "2020-08-12T21:30:00+01:00"
    },
    {
      "consumption": 0.468,
      "interval_start": "2020-08-12T21:30:00+01:00",
      "interval_end": "2020-08-12T22:00:00+01:00"
    },
    {
      "consumption": 0.424,
      "interval_start": "2020-08-12T22:00:00+01:00",
      "interval_end": "2020-08-12T22:30:00+01:00"
    },
    {
      "consumption": 0.453,
      "interval_start": "2020-08-12T22:30:00+01:00",
      "interval_end": "2020-08-12T23:00:00+01:00"
    },
    {
      "consumption": 0.326,
      "interval_start": "2020-08-12T23:00:00+01:00",
      "interval_end": "2020-08-12T23:30:00+01:00"
    },
    {
      "consumption": 0.302,
      "interval_start": "2020-08-12T23:30:00+01:00",
      "interval_end": "2020-08-13T00:00:00+01:00"
    },
    {
      "consumption": 0.264,
      "interval_start": "2020-08-13T00:00:00+01:00",
      "interval_end": "2020-08-13T00:30:00+01:00"
    },
    {
      "consumption": 0.239,
      "interval_start": "2020-08-13T00:30:00+01:00",
      "interval_end": "2020-08-13T01:00:00+01:00"
    },
    {
      "consumption": 0.227,
      "interval_start": "2020-08-13T01:00:00+01:00",
      "interval_end": "2020-08-13T01:30:00+01:00"
    },
    {
      "consumption": 0.233,
      "interval_start": "2020-08-13T01:30:00+01:00",
      "interval_end": "2020-08-13T02:00:00+01:00"
    },
    {
      "consumption": 0.232,
      "interval_start": "2020-08-13T02:00:00+01:00",
      "interval_end": "2020-08-13T02:30:00+01:00"
    },
    {
      "consumption": 0.223,
      "interval_start": "2020-08-13T02:30:00+01:00",
      "interval_end": "2020-08-13T03:00:00+01:00"
    },
    {
      "consumption": 0.215,
      "interval_start": "2020-08-13T03:00:00+01:00",
      "interval_end": "2020-08-13T03:30:00+01:00"
    },
    {
      "consumption": 0.217,
      "interval_start": "2020-08-13T03:30:00+01:00",
      "interval_end": "2020-08-13T04:00:00+01:00"
    },
    {
      "consumption": 0.209,
      "interval_start": "2020-08-13T04:00:00+01:00",
      "interval_end": "2020-08-13T04:30:00+01:00"
    },
    {
      "consumption": 0.207,
      "interval_start": "2020-08-13T04:30:00+01:00",
      "interval_end": "2020-08-13T05:00:00+01:00"
    },
    {
      "consumption": 0.206,
      "interval_start": "2020-08-13T05:00:00+01:00",
      "interval_end": "2020-08-13T05:30:00+01:00"
    },
    {
      "consumption": 0.217,
      "interval_start": "2020-08-13T05:30:00+01:00",
      "interval_end": "2020-08-13T06:00:00+01:00"
    },
    {
      "consumption": 0.228,
      "interval_start": "2020-08-13T06:00:00+01:00",
      "interval_end": "2020-08-13T06:30:00+01:00"
    },
    {
      "consumption": 0.299,
      "interval_start": "2020-08-13T06:30:00+01:00",
      "interval_end": "2020-08-13T07:00:00+01:00"
    },
    {
      "consumption": 0.364,
      "interval_start": "2020-08-13T07:00:00+01:00",
      "interval_end": "2020-08-13T07:30:00+01:00"
    },
    {
      "consumption": 0.312,
      "interval_start": "2020-08-13T07:30:00+01:00",
      "interval_end": "2020-08-13T08:00:00+01:00"
    },
    {
      "consumption": 0.386,
      "interval_start": "2020-08-13T08:00:00+01:00",
      "interval_end": "2020-08-13T08:30:00+01:00"
    },
    {
      "consumption": 4.028,
      "interval_start": "2020-08-13T08:30:00+01:00",
      "interval_end": "2020-08-13T09:00:00+01:00"
    },
    {
      "consumption": 4.09,
      "interval_start": "2020-08-13T09:00:00+01:00",
      "interval_end": "2020-08-13T09:30:00+01:00"
    },
    {
      "consumption": 4.07,
      "interval_start": "2020-08-13T09:30:00+01:00",
      "interval_end": "2020-08-13T10:00:00+01:00"
    },
    {
      "consumption": 4.061,
      "interval_start": "2020-08-13T10:00:00+01:00",
      "interval_end": "2020-08-13T10:30:00+01:00"
    },
    {
      "consumption": 3.996,
      "interval_start": "2020-08-13T10:30:00+01:00",
      "interval_end": "2020-08-13T11:00:00+01:00"
    },
    {
      "consumption": 3.056,
      "interval_start": "2020-08-13T11:00:00+01:00",
      "interval_end": "2020-08-13T11:30:00+01:00"
    },
    {
      "consumption": 0.425,
      "interval_start": "2020-08-13T11:30:00+01:00",
      "interval_end": "2020-08-13T12:00:00+01:00"
    },
    {
      "consumption": 0.382,
      "interval_start": "2020-08-13T12:00:00+01:00",
      "interval_end": "2020-08-13T12:30:00+01:00"
    },
    {
      "consumption": 0.359,
      "interval_start": "2020-08-13T12:30:00+01:00",
      "interval_end": "2020-08-13T13:00:00+01:00"
    },
    {
      "consumption": 0.365,
      "interval_start": "2020-08-13T13:00:00+01:00",
      "interval_end": "2020-08-13T13:30:00+01:00"
    },
    {
      "consumption": 0.36,
      "interval_start": "2020-08-13T13:30:00+01:00",
      "interval_end": "2020-08-13T14:00:00+01:00"
    },
    {
      "consumption": 0.35,
      "interval_start": "2020-08-13T14:00:00+01:00",
      "interval_end": "2020-08-13T14:30:00+01:00"
    },
    {
      "consumption": 0.35,
      "interval_start": "2020-08-13T14:30:00+01:00",
      "interval_end": "2020-08-13T15:00:00+01:00"
    },
    {
      "consumption": 0.426,
      "interval_start": "2020-08-13T15:00:00+01:00",
      "interval_end": "2020-08-13T15:30:00+01:00"
    },
    {
      "consumption": 0.353,
      "interval_start": "2020-08-13T15:30:00+01:00",
      "interval_end": "2020-08-13T16:00:00+01:00"
    },
    {
      "consumption": 0.36,
      "interval_start": "2020-08-13T16:00:00+01:00",
      "interval_end": "2020-08-13T16:30:00+01:00"
    },
    {
      "consumption": 0.541,
      "interval_start": "2020-08-13T16:30:00+01:00",
      "interval_end": "2020-08-13T17:00:00+01:00"
    },
    {
      "consumption": 1.403,
      "interval_start": "2020-08-13T17:00:00+01:00",
      "interval_end": "2020-08-13T17:30:00+01:00"
    },
    {
      "consumption": 0.348,
      "interval_start": "2020-08-13T17:30:00+01:00",
      "interval_end": "2020-08-13T18:00:00+01:00"
    },
    {
      "consumption": 0.338,
      "interval_start": "2020-08-13T18:00:00+01:00",
      "interval_end": "2020-08-13T18:30:00+01:00"
    },
    {
      "consumption": 0.494,
      "interval_start": "2020-08-13T18:30:00+01:00",
      "interval_end": "2020-08-13T19:00:00+01:00"
    },
    {
      "consumption": 0.37,
      "interval_start": "2020-08-13T19:00:00+01:00",
      "interval_end": "2020-08-13T19:30:00+01:00"
    },
    {
      "consumption": 0.409,
      "interval_start": "2020-08-13T19:30:00+01:00",
      "interval_end": "2020-08-13T20:00:00+01:00"
    },
    {
      "consumption": 0.654,
      "interval_start": "2020-08-13T20:00:00+01:00",
      "interval_end": "2020-08-13T20:30:00+01:00"
    },
    {
      "consumption": 0.364,
      "interval_start": "2020-08-13T20:30:00+01:00",
      "interval_end": "2020-08-13T21:00:00+01:00"
    },
    {
      "consumption": 0.573,
      "interval_start": "2020-08-13T21:00:00+01:00",
      "interval_end": "2020-08-13T21:30:00+01:00"
    },
    {
      "consumption": 0.358,
      "interval_start": "2020-08-13T21:30:00+01:00",
      "interval_end": "2020-08-13T22:00:00+01:00"
    },
    {
      "consumption": 0.344,
      "interval_start": "2020-08-13T22:00:00+01:00",
      "interval_end": "2020-08-13T22:30:00+01:00"
    },
    {
      "consumption": 0.266,
      "interval_start": "2020-08-13T22:30:00+01:00",
      "interval_end": "2020-08-13T23:00:00+01:00"
    },
    {
      "consumption": 0.273,
      "interval_start": "2020-08-13T23:00:00+01:00",
      "interval_end": "2020-08-13T23:30:00+01:00"
    },
    {
      "consumption": 0.25,
      "interval_start": "2020-08-13T23:30:00+01:00",
      "interval_end": "2020-08-14T00:00:00+01:00"
    },
    {
      "consumption": 0.228,
      "interval_start": "2020-08-14T00:00:00+01:00",
      "interval_end": "2020-08-14T00:30:00+01:00"
    },
    {
      "consumption": 0.197,
      "interval_start": "2020-08-14T00:30:00+01:00",
      "interval_end": "2020-08-14T01:00:00+01:00"
    },
    {
      "consumption": 0.182,
      "interval_start": "2020-08-14T01:00:00+01:00",
      "interval_end": "2020-08-14T01:30:00+01:00"
    },
    {
      "consumption": 0.182,
      "interval_start": "2020-08-14T01:30:00+01:00",
      "interval_end": "2020-08-14T02:00:00+01:00"
    },
    {
      "consumption": 0.191,
      "interval_start": "2020-08-14T02:00:00+01:00",
      "interval_end": "2020-08-14T02:30:00+01:00"
    }
  ]
}