{
  "count": 2496,
  "next": "https://api.octopus.energy/v1/electricity-meter-points/2000024512368/meters/-------------/consumption/?page=3",
  "previous": "https://api.octopus.energy/v1/electricity-meter-points/2000024512368/meters/-------------/consumption/",
  "results": [
    {
      "consumption": 0.875,
      "interval_start": "2020-09-30T22:00:00+01:00",
      "interval_end": "2020-09-30T22:30:00+01:00"
    },
    {
      "consumption": 1.021,
      "interval_start": "2020-09-30T21:30:00+01:00",
      "interval_end": "2020-09-30T22:00:00+01:00"
    },
    {
      "consumption": 0.554,
      "interval_start": "2020-09-30T21:00:00+01:00",
      "interval_end": "2020-09-30T21:30:00+01:00"
    },
    {
      "consumption": 0.463,
      "interval_start": "2020-09-30T20:30:00+01:00",
      "interval_end": "2020-09-30T21:00:00+01:00"
    },
    {
      "consumption": 0.454,
      "interval_start": "2020-09-30T20:00:00+01:00",
      "interval_end": "2020-09-30T20:30:00+01:00"
    },
    {
      "consumption": 0.596,
      "interval_start": "2020-09-30T19:30:00+01:00",
      "interval_end": "2020-09-30T20:00:00+01:00"
    },
    {
      "consumption": 0.439,
      "interval_start": "2020-09-30T19:00:00+01:00",
      "interval_end": "2020-09-30T19:30:00+01:00"
    },
    {
      "consumption": 0.416,
      "interval_start": "2020-09-30T18:30:00+01:00",
      "interval_end": "2020-09-30T19:00:00+01:00"
    },
    {
      "consumption": 0.411,
      "interval_start": "2020-09-30T18:00:00+01:00",
      "interval_end": "2020-09-30T18:30:00+01:00"
    },
    {
      "consumption": 0.51,
      "interval_start": "2020-09-30T17:30:00+01:00",
      "interval_end": "2020-09-30T18:00:00+01:00"
    },
    {
      "consumption": 0.495,
      "interval_start": "2020-09-30T17:00:00+01:00",
      "interval_end": "2020-09-30T17:30:00+01:00"
    },
    {
      "consumption": 0.397,
      "interval_start": "2020-09-30T16:30:00+01:00",
      "interval_end": "2020-09-30T17:00:00+01:00"
    },
    {
      "consumption": 0.384,
      "interval_start": "2020-09-30T16:00:00+01:00",
      "interval_end": "2020-09-30T16:30:00+01:00"
    },
    {
      "consumption": 0.451,
      "interval_start": "2020-09-30T15:30:00+01:00",
      "interval_end": "2020-09-30T16:00:00+01:00"
    },
    {
      "consumption": 0.401,
      "interval_start": "2020-09-30T15:00:00+01:00",
      "interval_end": "2020-09-30T15:30:00+01:00"
    },
    {
      "consumption": 0.409,
      "interval_start": "2020-09-30T14:30:00+01:00",
      "interval_end": "2020-09-30T15:00:00+01:00"
    },
    {
      "consumption": 0.421,
      "interval_start": "2020-09-30T14:00:00+01:00",
      "interval_end": "2020-09-30T14:30:00+01:00"
    },
    {
      "consumption": 0.4,
      "interval_start": "2020-09-30T13:30:00+01:00",
      "interval_end": "2020-09-30T14:00:00+01:00"
    },
    {
      "consumption": 0.4,
      "interval_start": "2020-09-30T13:00:00+01:00",
      "interval_end": "2020-09-30T13:30:00+01:00"
    },
    {
      "consumption": 0.405,
      "interval_start": "2020-09-30T12:30:00+01:00",
      "interval_end": "2020-09-30T13:00:00+01:00"
    },
    {
      "consumption": 0.44,
      "interval_start": "2020-09-30T12:00:00+01:00",
      "interval_end": "2020-09-30T12:30:00+01:00"
    },
    {
      "consumption": 0.396,
      "interval_start": "2020-09-30T11:30:00+01:00",
      "interval_end": "2020-09-30T12:00:00+01:00"
    },
    {
      "consumption": 0.407,
      "interval_start": "2020-09-30T11:00:00+01:00",
      "interval_end": "2020-09-30T11:30:00+01:00"
    },
    {
      "consumption": 0.382,
      "interval_start": "2020-09-30T10:30:00+01:00",
      "interval_end": "2020-09-30T11:00:00+01:00"
    },
    {
      "consumption": 0.396,
      "interval_start": "2020-09-30T10:00:00+01:00",
      "interval_end": "2020-09-30T10:30:00+01:00"
    },
    {
      "consumption": 0.398,
      "interval_start": "2020-09-30T09:30:00+01:00",
      "interval_end": "2020-09-30T10:00:00+01:00"
    },
    {
      "consumption": 0.39,
      "interval_start": "2020-09-30T09:00:00+01:00",
      "interval_end": "2020-09-30T09:30:00+01:00"
    },
    {
      "consumption": 0.408,
      "interval_start": "2020-09-30T08:30:00+01:00",
      "interval_end": "2020-09-30T09:00:00+01:00"
    },
    {
      "consumption": 0.411,
      "interval_start": "2020-09-30T08:00:00+01:00",
      "interval_end": "2020-09-30T08:30:00+01:00"
    },
    {
      "consumption": 0.441,
      "interval_start": "2020-09-30T07:30:00+01:00",
      "interval_end": "2020-09-30T08:00:00+01:00"
    },
    {
      "consumption": 0.317,
      "interval_start": "2020-09-30T07:00:00+01:00",
      "interval_end": "2020-09-30T07:30:00+01:00"
    },
    {
      "consumption": 0.348,
      "interval_start": "2020-09-30T06:30:00+01:00",
      "interval_end": "2020-09-30T07:00:00+01:00"
    },
    {
      "consumption": 0.267,
      "interval_start": "2020-09-30T06:00:00+01:00",
      "interval_end": "2020-09-30T06:30:00+01:00"
    },
    {
      "consumption": 0.261,
      "interval_start": "2020-09-30T05:30:00+01:00",
      "interval_end": "2020-09-30T06:00:00+01:00"
    },
    {
      "consumption": 0.261,
      "interval_start": "2020-09-30T05:00:00+01:00",
      "interval_end": "2020-09-30T05:30:00+01:00"
    },
    {
      "consumption": 0.253,
      "interval_start": "2020-09-30T04:30:00+01:00",
      "interval_end": "2020-09-30T05:00:00+01:00"
    },
    {
      "consumption": 0.254,
      "interval_start": "2020-09-30T04:00:00+01:00",
      "interval_end": "2020-09-30T04:30:00+01:00"
    },
    {
      "consumption": 0.257,
      "interval_start": "2020-09-30T03:30:00+01:00",
      "interval_end": "2020-09-30T04:00:00+01:00"
    },
    {
      "consumption": 0.26,
      "interval_start": "2020-09-30T03:00:00+01:00",
      "interval_end": "2020-09-30T03:30:00+01:00"
    },
    {
      "consumption": 0.254,
      "interval_start": "2020-09-30T02:30:00+01:00",
      "interval_end": "2020-09-30T03:00:00+01:00"
    },
    {
      "consumption": 0.278,
      "interval_start": "2020-09-30T02:00:00+01:00",
      "interval_end": "2020-09-30T02:30:00+01:00"
    },
    {
      "consumption": 0.281,
      "interval_start": "2020-09-30T01:30:00+01:00",
      "interval_end": "2020-09-30T02:00:00+01:00"
    },
    {
      "consumption": 0.268,
      "interval_start": "2020-09-30T01:00:00+01:00",
      "interval_end": "2020-09-30T01:30:00+01:00"
    },
    {
      "consumption": 0.287,
      "interval_start": "2020-09-30T00:30:00+01:00",
      "interval_end": "2020-09-30T01:00:00+01:00"
    },
    {
      "consumption": 0.35,
      "interval_start": "2020-09-30T00:00:00+01:00",
      "interval_end": "2020-09-30T00:30:00+01:00"
    },
    {
      "consumption": 0.357,
      "interval_start": "2020-09-29T23:30:00+01:00",
      "interval_end": "2020-09-30T00:00:00+01:00"
    },
    {
      "consumption": 0.366,
      "interval_start": "2020-09-29T23:00:00+01:00",
      "interval_end": "2020-09-29T23:30:00+01:00"
    },
    {
      "consumption": 1.011,
      "interval_start": "2020-09-29T22:30:00+01:00",
      "interval_end": "2020-09-29T23:00:00+01:00"
    },
    {
      "consumption": 0.783,
      "interval_start": "2020-09-29T22:00:00+01:00",
      "interval_end": "2020-09-29T22:30:00+01:00"
    },
    {
      "consumption": 0.498,
      "interval_start": "2020-09-29T21:30:00+01:00",
      "interval_end": "2020-09-29T22:00:00+01:00"
    },
    {
      "consumption": 0.526,
      "interval_start": "2020-09-29T21:00:00+01:00",
      "interval_end": "2020-09-29T21:30:00+01:00"
    },
    {
      "consumption": 0.431,
      "interval_start": "2020-09-29T20:30:00+01:00",
      "interval_end": "2020-09-29T21:00:00+01:00"
    },
    {
      "consumption": 0.349,
      "interval_start": "2020-09-29T20:00:00+01:00",
      "interval_end": "2020-09-29T20:30:00+01:00"
    },
    {
      "consumption": 0.388,
      "interval_start": "2020-09-29T19:30:00+01:00",
      "interval_end": "2020-09-29T20:00:00+01:00"
    },
    {
      "consumption": 0.424,
      "interval_start": "2020-09-29T19:00:00+01:00",
      "interval_end": "2020-09-29T19:30:00+01:00"
    },
    {
      "consumption": 0.496,
      "interval_start": "2020-09-29T18:30:00+01:00",
      "interval_end": "2020-09-29T19:00:00+01:00"
    },
    {
      "consumption": 0.402,
      "interval_start": "2020-09-29T18:00:00+01:00",
      "interval_end": "2020-09-29T18:30:00+01:00"
    },
    {
      "consumption": 0.398,
      "interval_start": "2020-09-29T17:30:00+01:00",
      "interval_end": "2020-09-29T18:00:00+01:00"
    },
    {
      "consumption": 0.403,
      "interval_start": "2020-09-29T17:00:00+01:00",
      "interval_end": "2020-09-29T17:30:00+01:00"
    },
    {
      "consumption": 0.45,
      "interval_start": "2020-09-29T16:30:00+01:00",
      "interval_end": "2020-09-29T17:00:00+01:00"
    },
    {
      "consumption": 0.412,
      "interval_start": "2020-09-29T16:00:00+01:00",
      "interval_end": "2020-09-29T16:30:00+01:00"
    },
    {
      "consumption": 0.518,
      "interval_start": "2020-09-29T15:30:00+01:00",
      "interval_end": "2020-09-29T16:00:00+01:00"
    },
    {
      "consumption": 0.394,
      "interval_start": "2020-09-29T15:00:00+01:00",
      "interval_end": "2020-09-29T15:30:00+01:00"
    },
    {
      "consumption": 0.404,
      "interval_start": "2020-09-29T14:30:00+01:00",
      "interval_end": "2020-09-29T15:00:00+01:00"
    },
    {
      "consumption": 0.453,
      "interval_start": "2020-09-29T14:00:00+01:00",
      "interval_end": "2020-09-29T14:30:00+01:00"
    },
    {
      "consumption": 0.654,
      "interval_start": "2020-09-29T13:30:00+01:00",
      "interval_end": "2020-09-29T14:00:00+01:00"
    },
    {
      "consumption": 0.492,
      "interval_start": "2020-09-29T13:00:00+01:00",
      "interval_end": "2020-09-29T13:30:00+01:00"
    },
    {
      "consumption": 0.443,
      "interval_start": "2020-09-29T12:30:00+01:00",
      "interval_end": "2020-09-29T13:00:00+01:00"
    },
    {
      "consumption": 0.396,
      "interval_start": "2020-09-29T12:00:00+01:00",
      "interval_end": "2020-09-29T12:30:00+01:00"
    },
    {
      "consumption": 0.406,
      "interval_start": "2020-09-29T11:30:00+01:00",
      "interval_end": "2020-09-29T12:00:00+01:00"
    },
    {
      "consumption": 0.516,
      "interval_start": "2020-09-29T11:00:00+01:00",
      "interval_end": "2020-09-29T11:30:00+01:00"
    },
    {
      "consumption": 0.394,
      "interval_start": "2020-09-29T10:30:00+01:00",
      "interval_end": "2020-09-29T11:00:00+01:00"
    },
    {
      "consumption": 0.405,
      "interval_start": "2020-09-29T10:00:00+01:00",
      "interval_end": "2020-09-29T10:30:00+01:00"
    },
    {
      "consumption": 0.445,
      "interval_start": "2020-09-29T09:30:00+01:00",
      "interval_end": "2020-09-29T10:00:00+01:00"
    },
    {
      "consumption": 0.392,
      "interval_start": "2020-09-29T09:00:00+01:00",
      "interval_end": "2020-09-29T09:30:00+01:00"
    },
    {
      "consumption": 0.403,
      "interval_start": "2020-09-29T08:30:00+01:00",
      "interval_end": "2020-09-29T09:00:00+01:00"
    },
    {
      "consumption": 0.472,
      "interval_start": "2020-09-29T08:00:00+01:00",
      "interval_end": "2020-09-29T08:30:00+01:00"
    },
    {
      "consumption": 0.408,
      "interval_start": "2020-09-29T07:30:00+01:00",
      "interval_end": "2020-09-29T08:00:00+01:00"
    },
    {
      "consumption": 0.382,
      "interval_start": "2020-09-29T07:00:00+01:00",
      "interval_end": "2020-09-29T07:30:00+01:00"
    },
    {
      "consumption": 0.327,
      "interval_start": "2020-09-29T06:30:00+01:00",
      "interval_end": "2020-09-29T07:00:00+01:00"
    },
    {
      "consumption": 0.281,
      "interval_start": "2020-09-29T06:00:00+01:00",
      "interval_end": "2020-09-29T06:30:00+01:00"
    },
    {
      "consumption": 0.266,
      "interval_start": "2020-09-29T05:30:00+01:00",
      "interval_end": "2020-09-29T06:00:00+01:00"
    },
    {
      "consumption": 0.252,
      "interval_start": "2020-09-29T05:00:00+01:00",
      "interval_end": "2020-09-29T05:30:00+01:00"
    },
    {
      "consumption": 0.263,
      "interval_start": "2020-09-29T04:30:00+01:00",
      "interval_end": "2020-09-29T05:00:00+01:00"
    },
    {
      "consumption": 0.251,
      "interval_start": "2020-09-29T04:00:00+01:00",
      "interval_end": "2020-09-29T04:30:00+01:00"
    },
    {
      "consumption": 0.26,
      "interval_start": "2020-09-29T03:30:00+01:00",
      "interval_end": "2020-09-29T04:00:00+01:00"
    },
    {
      "consumption": 0.267,
      "interval_start": "2020-09-29T03:00:00+01:00",
      "interval_end": "2020-09-29T03:30:00+01:00"
    },
    {
      "consumption": 0.254,
      "interval_start": "2020-09-29T02:30:00+01:00",
      "interval_end": "2020-09-29T03:00:00+01:00"
    },
    {
      "consumption": 0.281,
      "interval_start": "2020-09-29T02:00:00+01:00",
      "interval_end": "2020-09-29T02:30:00+01:00"
    },
    {
      "consumption": 0.27,
      "interval_start": "2020-09-29T01:30:00+01:00",
      "interval_end": "2020-09-29T02:00:00+01:00"
    },
    {
      "consumption": 0.277,
      "interval_start": "2020-09-29T01:00:00+01:00",
      "interval_end": "2020-09-29T01:30:00+01:00"
    },
    {
      "consumption": 0.288,
      "interval_start": "2020-09-29T00:30:00+01:00",
      "interval_end": "2020-09-29T01:00:00+01:00"
    },
    {
      "consumption": 0.292,
      "interval_start": "2020-09-29T00:00:00+01:00",
      "interval_end": "2020-09-29T00:30:00+01:00"
    },
    {
      "consumption": 0.346,
      "interval_start": "2020-09-28T23:30:00+01:00",
      "interval_end": "2020-09-29T00:00:00+01:00"
    },
    {
      "consumption": 0.361,
      "interval_start": "2020-09-28T23:00:00+01:00",
      "interval_end": "2020-09-28T23:30:00+01:00"
    },
    {
      "consumption": 0.49,
      "interval_start": "2020-09-28T22:30:00+01:00",
      "interval_end": "2020-09-28T23:00:00+01:00"
    },
    {
      "consumption": 0.615,
      "interval_start": "2020-09-28T22:00:00+01:00",
      "interval_end": "2020-09-28T22:30:00+01:00"
    },
    {
      "consumption": 1.485,
      "interval_start": "2020-09-28T21:30:00+01:00",
      "interval_end": "2020-09-28T22:00:00+01:00"
    },
    {
      "consumption": 0.677,
      "interval_start": "2020-09-28T21:00:00+01:00",
      "interval_end": "2020-09-28T21:30:00+01:00"
    },
    {
      "consumption": 0.386,
      "interval_start": "2020-09-28T20:30:00+01:00",
      "interval_end": "2020-09-28T21:00:00+01:00"
    }
  ]
}
