{
  "count": 2496,
  "next": "https://api.octopus.energy/v1/electricity-meter-points/2000024512368/meters/-------------/consumption/?page=2",
  "previous": null,
  "results": [
    {
      "consumption": 0.313,
      "interval_start": "2020-10-03T00:00:00+01:00",
      "interval_end": "2020-10-03T00:30:00+01:00"
    },
    {
      "consumption": 0.359,
      "interval_start": "2020-10-02T23:30:00+01:00",
      "interval_end": "2020-10-03T00:00:00+01:00"
    },
    {
      "consumption": 0.378,
      "interval_start": "2020-10-02T23:00:00+01:00",
      "interval_end": "2020-10-02T23:30:00+01:00"
    },
    {
      "consumption": 0.911,
      "interval_start": "2020-10-02T22:30:00+01:00",
      "interval_end": "2020-10-02T23:00:00+01:00"
    },
    {
      "consumption": 0.462,
      "interval_start": "2020-10-02T22:00:00+01:00",
      "interval_end": "2020-10-02T22:30:00+01:00"
    },
    {
      "consumption": 0.406,
      "interval_start": "2020-10-02T21:30:00+01:00",
      "interval_end": "2020-10-02T22:00:00+01:00"
    },
    {
      "consumption": 0.523,
      "interval_start": "2020-10-02T21:00:00+01:00",
      "interval_end": "2020-10-02T21:30:00+01:00"
    },
    {
      "consumption": 0.632,
      "interval_start": "2020-10-02T20:30:00+01:00",
      "interval_end": "2020-10-02T21:00:00+01:00"
    },
    {
      "consumption": 0.478,
      "interval_start": "2020-10-02T20:00:00+01:00",
      "interval_end": "2020-10-02T20:30:00+01:00"
    },
    {
      "consumption": 0.513,
      "interval_start": "2020-10-02T19:30:00+01:00",
      "interval_end": "2020-10-02T20:00:00+01:00"
    },
    {
      "consumption": 0.813,
      "interval_start": "2020-10-02T19:00:00+01:00",
      "interval_end": "2020-10-02T19:30:00+01:00"
    },
    {
      "consumption": 0.831,
      "interval_start": "2020-10-02T18:30:00+01:00",
      "interval_end": "2020-10-02T19:00:00+01:00"
    },
    {
      "consumption": 0.414,
      "interval_start": "2020-10-02T18:00:00+01:00",
      "interval_end": "2020-10-02T18:30:00+01:00"
    },
    {
      "consumption": 0.456,
      "interval_start": "2020-10-02T17:30:00+01:00",
      "interval_end": "2020-10-02T18:00:00+01:00"
    },
    {
      "consumption": 1.321,
      "interval_start": "2020-10-02T17:00:00+01:00",
      "interval_end": "2020-10-02T17:30:00+01:00"
    },
    {
      "consumption": 0.429,
      "interval_start": "2020-10-02T16:30:00+01:00",
      "interval_end": "2020-10-02T17:00:00+01:00"
    },
    {
      "consumption": 0.425,
      "interval_start": "2020-10-02T16:00:00+01:00",
      "interval_end": "2020-10-02T16:30:00+01:00"
    },
    {
      "consumption": 0.495,
      "interval_start": "2020-10-02T15:30:00+01:00",
      "interval_end": "2020-10-02T16:00:00+01:00"
    },
    {
      "consumption": 0.415,
      "interval_start": "2020-10-02T15:00:00+01:00",
      "interval_end": "2020-10-02T15:30:00+01:00"
    },
    {
      "consumption": 0.404,
      "interval_start": "2020-10-02T14:30:00+01:00",
      "interval_end": "2020-10-02T15:00:00+01:00"
    },
    {
      "consumption": 0.447,
      "interval_start": "2020-10-02T14:00:00+01:00",
      "interval_end": "2020-10-02T14:30:00+01:00"
    },
    {
      "consumption": 0.431,
      "interval_start": "2020-10-02T13:30:00+01:00",
      "interval_end": "2020-10-02T14:00:00+01:00"
    },
    {
      "consumption": 0.454,
      "interval_start": "2020-10-02T13:00:00+01:00",
      "interval_end": "2020-10-02T13:30:00+01:00"
    },
    {
      "consumption": 0.399,
      "interval_start": "2020-10-02T12:30:00+01:00",
      "interval_end": "2020-10-02T13:00:00+01:00"
    },
    {
      "consumption": 0.446,
      "interval_start": "2020-10-02T12:00:00+01:00",
      "interval_end": "2020-10-02T12:30:00+01:00"
    },
    {
      "consumption": 0.434,
      "interval_start": "2020-10-02T11:30:00+01:00",
      "interval_end": "2020-10-02T12:00:00+01:00"
    },
    {
      "consumption": 0.382,
      "interval_start": "2020-10-02T11:00:00+01:00",
      "interval_end": "2020-10-02T11:30:00+01:00"
    },
    {
      "consumption": 0.373,
      "interval_start": "2020-10-02T10:30:00+01:00",
      "interval_end": "2020-10-02T11:00:00+01:00"
    },
    {
      "consumption": 0.361,
      "interval_start": "2020-10-02T10:00:00+01:00",
      "interval_end": "2020-10-02T10:30:00+01:00"
    },
    {
      "consumption": 0.439,
      "interval_start": "2020-10-02T09:30:00+01:00",
      "interval_end": "2020-10-02T10:00:00+01:00"
    },
    {
      "consumption": 0.403,
      "interval_start": "2020-10-02T09:00:00+01:00",
      "interval_end": "2020-10-02T09:30:00+01:00"
    },
    {
      "consumption": 0.42,
      "interval_start": "2020-10-02T08:30:00+01:00",
      "interval_end": "2020-10-02T09:00:00+01:00"
    },
    {
      "consumption": 0.49,
      "interval_start": "2020-10-02T08:00:00+01:00",
      "interval_end": "2020-10-02T08:30:00+01:00"
    },
    {
      "consumption": 0.425,
      "interval_start": "2020-10-02T07:30:00+01:00",
      "interval_end": "2020-10-02T08:00:00+01:00"
    },
    {
      "consumption": 0.592,
      "interval_start": "2020-10-02T07:00:00+01:00",
      "interval_end": "2020-10-02T07:30:00+01:00"
    },
    {
      "consumption": 0.298,
      "interval_start": "2020-10-02T06:30:00+01:00",
      "interval_end": "2020-10-02T07:00:00+01:00"
    },
    {
      "consumption": 0.603,
      "interval_start": "2020-10-02T06:00:00+01:00",
      "interval_end": "2020-10-02T06:30:00+01:00"
    },
    {
      "consumption": 2.742,
      "interval_start": "2020-10-02T05:30:00+01:00",
      "interval_end": "2020-10-02T06:00:00+01:00"
    },
    {
      "consumption": 3.698,
      "interval_start": "2020-10-02T05:00:00+01:00",
      "interval_end": "2020-10-02T05:30:00+01:00"
    },
    {
      "consumption": 3.779,
      "interval_start": "2020-10-02T04:30:00+01:00",
      "interval_end": "2020-10-02T05:00:00+01:00"
    },
    {
      "consumption": 3.809,
      "interval_start": "2020-10-02T04:00:00+01:00",
      "interval_end": "2020-10-02T04:30:00+01:00"
    },
    {
      "consumption": 0.219,
      "interval_start": "2020-10-02T03:30:00+01:00",
      "interval_end": "2020-10-02T04:00:00+01:00"
    },
    {
      "consumption": 0.218,
      "interval_start": "2020-10-02T03:00:00+01:00",
      "interval_end": "2020-10-02T03:30:00+01:00"
    },
    {
      "consumption": 0.228,
      "interval_start": "2020-10-02T02:30:00+01:00",
      "interval_end": "2020-10-02T03:00:00+01:00"
    },
    {
      "consumption": 0.22,
      "interval_start": "2020-10-02T02:00:00+01:00",
      "interval_end": "2020-10-02T02:30:00+01:00"
    },
    {
      "consumption": 0.239,
      "interval_start": "2020-10-02T01:30:00+01:00",
      "interval_end": "2020-10-02T02:00:00+01:00"
    },
    {
      "consumption": 0.239,
      "interval_start": "2020-10-02T01:00:00+01:00",
      "interval_end": "2020-10-02T01:30:00+01:00"
    },
    {
      "consumption": 0.23,
      "interval_start": "2020-10-02T00:30:00+01:00",
      "interval_end": "2020-10-02T01:00:00+01:00"
    },
    {
      "consumption": 0.271,
      "interval_start": "2020-10-02T00:00:00+01:00",
      "interval_end": "2020-10-02T00:30:00+01:00"
    },
    {
      "consumption": 0.372,
      "interval_start": "2020-10-01T23:30:00+01:00",
      "interval_end": "2020-10-02T00:00:00+01:00"
    },
    {
      "consumption": 0.401,
      "interval_start": "2020-10-01T23:00:00+01:00",
      "interval_end": "2020-10-01T23:30:00+01:00"
    },
    {
      "consumption": 0.509,
      "interval_start": "2020-10-01T22:30:00+01:00",
      "interval_end": "2020-10-01T23:00:00+01:00"
    },
    {
      "consumption": 0.413,
      "interval_start": "2020-10-01T22:00:00+01:00",
      "interval_end": "2020-10-01T22:30:00+01:00"
    },
    {
      "consumption": 0.403,
      "interval_start": "2020-10-01T21:30:00+01:00",
      "interval_end": "2020-10-01T22:00:00+01:00"
    },
    {
      "consumption": 0.621,
      "interval_start": "2020-10-01T21:00:00+01:00",
      "interval_end": "2020-10-01T21:30:00+01:00"
    },
    {
      "consumption": 0.461,
      "interval_start": "2020-10-01T20:30:00+01:00",
      "interval_end": "2020-10-01T21:00:00+01:00"
    },
    {
      "consumption": 0.466,
      "interval_start": "2020-10-01T20:00:00+01:00",
      "interval_end": "2020-10-01T20:30:00+01:00"
    },
    {
      "consumption": 0.514,
      "interval_start": "2020-10-01T19:30:00+01:00",
      "interval_end": "2020-10-01T20:00:00+01:00"
    },
    {
      "consumption": 0.412,
      "interval_start": "2020-10-01T19:00:00+01:00",
      "interval_end": "2020-10-01T19:30:00+01:00"
    },
    {
      "consumption": 0.418,
      "interval_start": "2020-10-01T18:30:00+01:00",
      "interval_end": "2020-10-01T19:00:00+01:00"
    },
    {
      "consumption": 0.42,
      "interval_start": "2020-10-01T18:00:00+01:00",
      "interval_end": "2020-10-01T18:30:00+01:00"
    },
    {
      "consumption": 0.443,
      "interval_start": "2020-10-01T17:30:00+01:00",
      "interval_end": "2020-10-01T18:00:00+01:00"
    },
    {
      "consumption": 0.94,
      "interval_start": "2020-10-01T17:00:00+01:00",
      "interval_end": "2020-10-01T17:30:00+01:00"
    },
    {
      "consumption": 0.612,
      "interval_start": "2020-10-01T16:30:00+01:00",
      "interval_end": "2020-10-01T17:00:00+01:00"
    },
    {
      "consumption": 0.396,
      "interval_start": "2020-10-01T16:00:00+01:00",
      "interval_end": "2020-10-01T16:30:00+01:00"
    },
    {
      "consumption": 0.481,
      "interval_start": "2020-10-01T15:30:00+01:00",
      "interval_end": "2020-10-01T16:00:00+01:00"
    },
    {
      "consumption": 0.414,
      "interval_start": "2020-10-01T15:00:00+01:00",
      "interval_end": "2020-10-01T15:30:00+01:00"
    },
    {
      "consumption": 0.394,
      "interval_start": "2020-10-01T14:30:00+01:00",
      "interval_end": "2020-10-01T15:00:00+01:00"
    },
    {
      "consumption": 0.413,
      "interval_start": "2020-10-01T14:00:00+01:00",
      "interval_end": "2020-10-01T14:30:00+01:00"
    },
    {
      "consumption": 0.395,
      "interval_start": "2020-10-01T13:30:00+01:00",
      "interval_end": "2020-10-01T14:00:00+01:00"
    },
    {
      "consumption": 0.453,
      "interval_start": "2020-10-01T13:00:00+01:00",
      "interval_end": "2020-10-01T13:30:00+01:00"
    },
    {
      "consumption": 0.417,
      "interval_start": "2020-10-01T12:30:00+01:00",
      "interval_end": "2020-10-01T13:00:00+01:00"
    },
    {
      "consumption": 0.418,
      "interval_start": "2020-10-01T12:00:00+01:00",
      "interval_end": "2020-10-01T12:30:00+01:00"
    },
    {
      "consumption": 0.396,
      "interval_start": "2020-10-01T11:30:00+01:00",
      "interval_end": "2020-10-01T12:00:00+01:00"
    },
    {
      "consumption": 0.525,
      "interval_start": "2020-10-01T11:00:00+01:00",
      "interval_end": "2020-10-01T11:30:00+01:00"
    },
    {
      "consumption": 0.411,
      "interval_start": "2020-10-01T10:30:00+01:00",
      "interval_end": "2020-10-01T11:00:00+01:00"
    },
    {
      "consumption": 0.409,
      "interval_start": "2020-10-01T10:00:00+01:00",
      "interval_end": "2020-10-01T10:30:00+01:00"
    },
    {
      "consumption": 0.514,
      "interval_start": "2020-10-01T09:30:00+01:00",
      "interval_end": "2020-10-01T10:00:00+01:00"
    },
    {
      "consumption": 0.423,
      "interval_start": "2020-10-01T09:00:00+01:00",
      "interval_end": "2020-10-01T09:30:00+01:00"
    },
    {
      "consumption": 0.419,
      "interval_start": "2020-10-01T08:30:00+01:00",
      "interval_end": "2020-10-01T09:00:00+01:00"
    },
    {
      "consumption": 0.442,
      "interval_start": "2020-10-01T08:00:00+01:00",
      "interval_end": "2020-10-01T08:30:00+01:00"
    },
    {
      "consumption": 0.394,
      "interval_start": "2020-10-01T07:30:00+01:00",
      "interval_end": "2020-10-01T08:00:00+01:00"
    },
    {
      "consumption": 0.353,
      "interval_start": "2020-10-01T07:00:00+01:00",
      "interval_end": "2020-10-01T07:30:00+01:00"
    },
    {
      "consumption": 0.347,
      "interval_start": "2020-10-01T06:30:00+01:00",
      "interval_end": "2020-10-01T07:00:00+01:00"
    },
    {
      "consumption": 0.265,
      "interval_start": "2020-10-01T06:00:00+01:00",
      "interval_end": "2020-10-01T06:30:00+01:00"
    },
    {
      "consumption": 0.271,
      "interval_start": "2020-10-01T05:30:00+01:00",
      "interval_end": "2020-10-01T06:00:00+01:00"
    },
    {
      "consumption": 0.265,
      "interval_start": "2020-10-01T05:00:00+01:00",
      "interval_end": "2020-10-01T05:30:00+01:00"
    },
    {
      "consumption": 0.248,
      "interval_start": "2020-10-01T04:30:00+01:00",
      "interval_end": "2020-10-01T05:00:00+01:00"
    },
    {
      "consumption": 0.267,
      "interval_start": "2020-10-01T04:00:00+01:00",
      "interval_end": "2020-10-01T04:30:00+01:00"
    },
    {
      "consumption": 0.259,
      "interval_start": "2020-10-01T03:30:00+01:00",
      "interval_end": "2020-10-01T04:00:00+01:00"
    },
    {
      "consumption": 0.252,
      "interval_start": "2020-10-01T03:00:00+01:00",
      "interval_end": "2020-10-01T03:30:00+01:00"
    },
    {
      "consumption": 0.272,
      "interval_start": "2020-10-01T02:30:00+01:00",
      "interval_end": "2020-10-01T03:00:00+01:00"
    },
    {
      "consumption": 0.273,
      "interval_start": "2020-10-01T02:00:00+01:00",
      "interval_end": "2020-10-01T02:30:00+01:00"
    },
    {
      "consumption": 0.275,
      "interval_start": "2020-10-01T01:30:00+01:00",
      "interval_end": "2020-10-01T02:00:00+01:00"
    },
    {
      "consumption": 0.28,
      "interval_start": "2020-10-01T01:00:00+01:00",
      "interval_end": "2020-10-01T01:30:00+01:00"
    },
    {
      "consumption": 0.269,
      "interval_start": "2020-10-01T00:30:00+01:00",
      "interval_end": "2020-10-01T01:00:00+01:00"
    },
    {
      "consumption": 0.309,
      "interval_start": "2020-10-01T00:00:00+01:00",
      "interval_end": "2020-10-01T00:30:00+01:00"
    },
    {
      "consumption": 0.348,
      "interval_start": "2020-09-30T23:30:00+01:00",
      "interval_end": "2020-10-01T00:00:00+01:00"
    },
    {
      "consumption": 0.413,
      "interval_start": "2020-09-30T23:00:00+01:00",
      "interval_end": "2020-09-30T23:30:00+01:00"
    },
    {
      "consumption": 0.515,
      "interval_start": "2020-09-30T22:30:00+01:00",
      "interval_end": "2020-09-30T23:00:00+01:00"
    }
  ]
}
