{
  "count": 2496,
  "next": "https://api.octopus.energy/v1/electricity-meter-points/2000024512368/meters/-------------/consumption/?order_by=period&page=3",
  "previous": "https://api.octopus.energy/v1/electricity-meter-points/2000024512368/meters/-------------/consumption/?order_by=period",
  "results": [
    {
      "consumption": 0.182,
      "interval_start": "2020-08-14T02:30:00+01:00",
      "interval_end": "2020-08-14T03:00:00+01:00"
    },
    {
      "consumption": 0.172,
      "interval_start": "2020-08-14T03:00:00+01:00",
      "interval_end": "2020-08-14T03:30:00+01:00"
    },
    {
      "consumption": 0.163,
      "interval_start": "2020-08-14T03:30:00+01:00",
      "interval_end": "2020-08-14T04:00:00+01:00"
    },
    {
      "consumption": 0.167,
      "interval_start": "2020-08-14T04:00:00+01:00",
      "interval_end": "2020-08-14T04:30:00+01:00"
    },
    {
      "consumption": 0.174,
      "interval_start": "2020-08-14T04:30:00+01:00",
      "interval_end": "2020-08-14T05:00:00+01:00"
    },
    {
      "consumption": 0.171,
      "interval_start": "2020-08-14T05:00:00+01:00",
      "interval_end": "2020-08-14T05:30:00+01:00"
    },
    {
      "consumption": 0.174,
      "interval_start": "2020-08-14T05:30:00+01:00",
      "interval_end": "2020-08-14T06:00:00+01:00"
    },
    {
      "consumption": 0.176,
      "interval_start": "2020-08-14T06:00:00+01:00",
      "interval_end": "2020-08-14T06:30:00+01:00"
    },
    {
      "consumption": 0.252,
      "interval_start": "2020-08-14T06:30:00+01:00",
      "interval_end": "2020-08-14T07:00:00+01:00"
    },
    {
      "consumption": 0.29,
      "interval_start": "2020-08-14T07:00:00+01:00",
      "interval_end": "2020-08-14T07:30:00+01:00"
    },
    {
      "consumption": 0.422,
      "interval_start": "2020-08-14T07:30:00+01:00",
      "interval_end": "2020-08-14T08:00:00+01:00"
    },
    {
      "consumption": 0.291,
      "interval_start": "2020-08-14T08:00:00+01:00",
      "interval_end": "2020-08-14T08:30:00+01:00"
    },
    {
      "consumption": 0.3,
      "interval_start": "2020-08-14T08:30:00+01:00",
      "interval_end": "2020-08-14T09:00:00+01:00"
    },
    {
      "consumption": 0.298,
      "interval_start": "2020-08-14T09:00:00+01:00",
      "interval_end": "2020-08-14T09:30:00+01:00"
    },
    {
      "consumption": 0.301,
      "interval_start": "2020-08-14T09:30:00+01:00",
      "interval_end": "2020-08-14T10:00:00+01:00"
    },
    {
      "consumption": 0.295,
      "interval_start": "2020-08-14T10:00:00+01:00",
      "interval_end": "2020-08-14T10:30:00+01:00"
    },
    {
      "consumption": 0.285,
      "interval_start": "2020-08-14T10:30:00+01:00",
      "interval_end": "2020-08-14T11:00:00+01:00"
    },
    {
      "consumption": 0.291,
      "interval_start": "2020-08-14T11:00:00+01:00",
      "interval_end": "2020-08-14T11:30:00+01:00"
    },
    {
      "consumption": 0.296,
      "interval_start": "2020-08-14T11:30:00+01:00",
      "interval_end": "2020-08-14T12:00:00+01:00"
    },
    {
      "consumption": 0.297,
      "interval_start": "2020-08-14T12:00:00+01:00",
      "interval_end": "2020-08-14T12:30:00+01:00"
    },
    {
      "consumption": 0.308,
      "interval_start": "2020-08-14T12:30:00+01:00",
      "interval_end": "2020-08-14T13:00:00+01:00"
    },
    {
      "consumption": 0.267,
      "interval_start": "2020-08-14T13:00:00+01:00",
      "interval_end": "2020-08-14T13:30:00+01:00"
    },
    {
      "consumption": 0.266,
      "interval_start": "2020-08-14T13:30:00+01:00",
      "interval_end": "2020-08-14T14:00:00+01:00"
    },
    {
      "consumption": 0.345,
      "interval_start": "2020-08-14T14:00:00+01:00",
      "interval_end": "2020-08-14T14:30:00+01:00"
    },
    {
      "consumption": 0.331,
      "interval_start": "2020-08-14T14:30:00+01:00",
      "interval_end": "2020-08-14T15:00:00+01:00"
    },
    {
      "consumption": 0.311,
      "interval_start": "2020-08-14T15:00:00+01:00",
      "interval_end": "2020-08-14T15:30:00+01:00"
    },
    {
      "consumption": 0.325,
      "interval_start": "2020-08-14T15:30:00+01:00",
      "interval_end": "2020-08-14T16:00:00+01:00"
    },
    {
      "consumption": 0.325,
      "interval_start": "2020-08-14T16:00:00+01:00",
      "interval_end": "2020-08-14T16:30:00+01:00"
    },
    {
      "consumption": 0.324,
      "interval_start": "2020-08-14T16:30:00+01:00",
      "interval_end": "2020-08-14T17:00:00+01:00"
    },
    {
      "consumption": 0.328,
      "interval_start": "2020-08-14T17:00:00+01:00",
      "interval_end": "2020-08-14T17:30:00+01:00"
    },
    {
      "consumption": 0.336,
      "interval_start": "2020-08-14T17:30:00+01:00",
      "interval_end": "2020-08-14T18:00:00+01:00"
    },
    {
      "consumption": 0.335,
      "interval_start": "2020-08-14T18:00:00+01:00",
      "interval_end": "2020-08-14T18:30:00+01:00"
    },
    {
      "consumption": 0.329,
      "interval_start": "2020-08-14T18:30:00+01:00",
      "interval_end": "2020-08-14T19:00:00+01:00"
    },
    {
      "consumption": 0.334,
      "interval_start": "2020-08-14T19:00:00+01:00",
      "interval_end": "2020-08-14T19:30:00+01:00"
    },
    {
      "consumption": 0.332,
      "interval_start": "2020-08-14T19:30:00+01:00",
      "interval_end": "2020-08-14T20:00:00+01:00"
    },
    {
      "consumption": 0.327,
      "interval_start": "2020-08-14T20:00:00+01:00",
      "interval_end": "2020-08-14T20:30:00+01:00"
    },
    {
      "consumption": 0.442,
      "interval_start": "2020-08-14T20:30:00+01:00",
      "interval_end": "2020-08-14T21:00:00+01:00"
    },
    {
      "consumption": 0.814,
      "interval_start": "2020-08-14T21:00:00+01:00",
      "interval_end": "2020-08-14T21:30:00+01:00"
    },
    {
      "consumption": 0.891,
      "interval_start": "2020-08-14T21:30:00+01:00",
      "interval_end": "2020-08-14T22:00:00+01:00"
    },
    {
      "consumption": 0.509,
      "interval_start": "2020-08-14T22:00:00+01:00",
      "interval_end": "2020-08-14T22:30:00+01:00"
    },
    {
      "consumption": 0.557,
      "interval_start": "2020-08-14T22:30:00+01:00",
      "interval_end": "2020-08-14T23:00:00+01:00"
    },
    {
      "consumption": 0.311,
      "interval_start": "2020-08-14T23:00:00+01:00",
      "interval_end": "2020-08-14T23:30:00+01:00"
    },
    {
      "consumption": 0.304,
      "interval_start": "2020-08-14T23:30:00+01:00",
      "interval_end": "2020-08-15T00:00:00+01:00"
    },
    {
      "consumption": 0.249,
      "interval_start": "2020-08-15T00:00:00+01:00",
      "interval_end": "2020-08-15T00:30:00+01:00"
    },
    {
      "consumption": 0.221,
      "interval_start": "2020-08-15T00:30:00+01:00",
      "interval_end": "2020-08-15T01:00:00+01:00"
    },
    {
      "consumption": 0.225,
      "interval_start": "2020-08-15T01:00:00+01:00",
      "interval_end": "2020-08-15T01:30:00+01:00"
    },
    {
      "consumption": 0.224,
      "interval_start": "2020-08-15T01:30:00+01:00",
      "interval_end": "2020-08-15T02:00:00+01:00"
    },
    {
      "consumption": 0.21,
      "interval_start": "2020-08-15T02:00:00+01:00",
      "interval_end": "2020-08-15T02:30:00+01:00"
    },
    {
      "consumption": 0.208,
      "interval_start": "2020-08-15T02:30:00+01:00",
      "interval_end": "2020-08-15T03:00:00+01:00"
    },
    {
      "consumption": 0.21,
      "interval_start": "2020-08-15T03:00:00+01:00",
      "interval_end": "2020-08-15T03:30:00+01:00"
    },
    {
      "consumption": 0.208,
      "interval_start": "2020-08-15T03:30:00+01:00",
      "interval_end": "2020-08-15T04:00:00+01:00"
    },
    {
      "consumption": 0.192,
      "interval_start": "2020-08-15T04:00:00+01:00",
      "interval_end": "2020-08-15T04:30:00+01:00"
    },
    {
      "consumption": 0.212,
      "interval_start": "2020-08-15T04:30:00+01:00",
      "interval_end": "2020-08-15T05:00:00+01:00"
    },
    {
      "consumption": 0.213,
      "interval_start": "2020-08-15T05:00:00+01:00",
      "interval_end": "2020-08-15T05:30:00+01:00"
    },
    {
      "consumption": 0.211,
      "interval_start": "2020-08-15T05:30:00+01:00",
      "interval_end": "2020-08-15T06:00:00+01:00"
    },
    {
      "consumption": 0.221,
      "interval_start": "2020-08-15T06:00:00+01:00",
      "interval_end": "2020-08-15T06:30:00+01:00"
    },
    {
      "consumption": 0.308,
      "interval_start": "2020-08-15T06:30:00+01:00",
      "interval_end": "2020-08-15T07:00:00+01:00"
    },
    {
      "consumption": 0.352,
      "interval_start": "2020-08-15T07:00:00+01:00",
      "interval_end": "2020-08-15T07:30:00+01:00"
    },
    {
      "consumption": 0.295,
      "interval_start": "2020-08-15T07:30:00+01:00",
      "interval_end": "2020-08-15T08:00:00+01:00"
    },
    {
      "consumption": 0.33,
      "interval_start": "2020-08-15T08:00:00+01:00",
      "interval_end": "2020-08-15T08:30:00+01:00"
    },
    {
      "consumption": 0.385,
      "interval_start": "2020-08-15T08:30:00+01:00",
      "interval_end": "2020-08-15T09:00:00+01:00"
    },
    {
      "consumption": 0.446,
      "interval_start": "2020-08-15T09:00:00+01:00",
      "interval_end": "2020-08-15T09:30:00+01:00"
    },
    {
      "consumption": 0.387,
      "interval_start": "2020-08-15T09:30:00+01:00",
      "interval_end": "2020-08-15T10:00:00+01:00"
    },
    {
      "consumption": 0.379,
      "interval_start": "2020-08-15T10:00:00+01:00",
      "interval_end": "2020-08-15T10:30:00+01:00"
    },
    {
      "consumption": 0.48,
      "interval_start": "2020-08-15T10:30:00+01:00",
      "interval_end": "2020-08-15T11:00:00+01:00"
    },
    {
      "consumption": 0.378,
      "interval_start": "2020-08-15T11:00:00+01:00",
      "interval_end": "2020-08-15T11:30:00+01:00"
    },
    {
      "consumption": 0.919,
      "interval_start": "2020-08-15T11:30:00+01:00",
      "interval_end": "2020-08-15T12:00:00+01:00"
    },
    {
      "consumption": 0.403,
      "interval_start": "2020-08-15T12:00:00+01:00",
      "interval_end": "2020-08-15T12:30:00+01:00"
    },
    {
      "consumption": 0.426,
      "interval_start": "2020-08-15T12:30:00+01:00",
      "interval_end": "2020-08-15T13:00:00+01:00"
    },
    {
      "consumption": 0.306,
      "interval_start": "2020-08-15T13:00:00+01:00",
      "interval_end": "2020-08-15T13:30:00+01:00"
    },
    {
      "consumption": 0.403,
      "interval_start": "2020-08-15T13:30:00+01:00",
      "interval_end": "2020-08-15T14:00:00+01:00"
    },
    {
      "consumption": 0.518,
      "interval_start": "2020-08-15T14:00:00+01:00",
      "interval_end": "2020-08-15T14:30:00+01:00"
    },
    {
      "consumption": 0.439,
      "interval_start": "2020-08-15T14:30:00+01:00",
      "interval_end": "2020-08-15T15:00:00+01:00"
    },
    {
      "consumption": 0.456,
      "interval_start": "2020-08-15T15:00:00+01:00",
      "interval_end": "2020-08-15T15:30:00+01:00"
    },
    {
      "consumption": 0.448,
      "interval_start": "2020-08-15T15:30:00+01:00",
      "interval_end": "2020-08-15T16:00:00+01:00"
    },
    {
      "consumption": 0.404,
      "interval_start": "2020-08-15T16:00:00+01:00",
      "interval_end": "2020-08-15T16:30:00+01:00"
    },
    {
      "consumption": 1.031,
      "interval_start": "2020-08-15T16:30:00+01:00",
      "interval_end": "2020-08-15T17:00:00+01:00"
    },
    {
      "consumption": 0.461,
      "interval_start": "2020-08-15T17:00:00+01:00",
      "interval_end": "2020-08-15T17:30:00+01:00"
    },
    {
      "consumption": 0.318,
      "interval_start": "2020-08-15T17:30:00+01:00",
      "interval_end": "2020-08-15T18:00:00+01:00"
    },
    {
      "consumption": 0.387,
      "interval_start": "2020-08-15T18:00:00+01:00",
      "interval_end": "2020-08-15T18:30:00+01:00"
    },
    {
      "consumption": 0.345,
      "interval_start": "2020-08-15T18:30:00+01:00",
      "interval_end": "2020-08-15T19:00:00+01:00"
    },
    {
      "consumption": 0.311,
      "interval_start": "2020-08-15T19:00:00+01:00",
      "interval_end": "2020-08-15T19:30:00+01:00"
    },
    {
      "consumption": 0.262,
      "interval_start": "2020-08-15T19:30:00+01:00",
      "interval_end": "2020-08-15T20:00:00+01:00"
    },
    {
      "consumption": 0.258,
      "interval_start": "2020-08-15T20:00:00+01:00",
      "interval_end": "2020-08-15T20:30:00+01:00"
    },
    {
      "consumption": 0.453,
      "interval_start": "2020-08-15T20:30:00+01:00",
      "interval_end": "2020-08-15T21:00:00+01:00"
    },
    {
      "consumption": 0.422,
      "interval_start": "2020-08-15T21:00:00+01:00",
      "interval_end": "2020-08-15T21:30:00+01:00"
    },
    {
      "consumption": 0.332,
      "interval_start": "2020-08-15T21:30:00+01:00",
      "interval_end": "2020-08-15T22:00:00+01:00"
    },
    {
      "consumption": 0.337,
      "interval_start": "2020-08-15T22:00:00+01:00",
      "interval_end": "2020-08-15T22:30:00+01:00"
    },
    {
      "consumption": 0.566,
      "interval_start": "2020-08-15T22:30:00+01:00",
      "interval_end": "2020-08-15T23:00:00+01:00"
    },
    {
      "consumption": 0.296,
      "interval_start": "2020-08-15T23:00:00+01:00",
      "interval_end": "2020-08-15T23:30:00+01:00"
    },
    {
      "consumption": 0.309,
      "interval_start": "2020-08-15T23:30:00+01:00",
      "interval_end": "2020-08-16T00:00:00+01:00"
    },
    {
      "consumption": 0.268,
      "interval_start": "2020-08-16T00:00:00+01:00",
      "interval_end": "2020-08-16T00:30:00+01:00"
    },
    {
      "consumption": 0.249,
      "interval_start": "2020-08-16T00:30:00+01:00",
      "interval_end": "2020-08-16T01:00:00+01:00"
    },
    {
      "consumption": 0.229,
      "interval_start": "2020-08-16T01:00:00+01:00",
      "interval_end": "2020-08-16T01:30:00+01:00"
    },
    {
      "consumption": 0.24,
      "interval_start": "2020-08-16T01:30:00+01:00",
      "interval_end": "2020-08-16T02:00:00+01:00"
    },
    {
      "consumption": 0.243,
      "interval_start": "2020-08-16T02:00:00+01:00",
      "interval_end": "2020-08-16T02:30:00+01:00"
    },
    {
      "consumption": 0.218,
      "interval_start": "2020-08-16T02:30:00+01:00",
      "interval_end": "2020-08-16T03:00:00+01:00"
    },
    {
      "consumption": 0.22,
      "interval_start": "2020-08-16T03:00:00+01:00",
      "interval_end": "2020-08-16T03:30:00+01:00"
    },
    {
      "consumption": 0.225,
      "interval_start": "2020-08-16T03:30:00+01:00",
      "interval_end": "2020-08-16T04:00:00+01:00"
    },
    {
      "consumption": 0.218,
      "interval_start": "2020-08-16T04:00:00+01:00",
      "interval_end": "2020-08-16T04:30:00+01:00"
    }
  ]
}
